[
    {
        "name": "Create local user",
        "sensu.sensu_go.user": {
            "name": "johnmcclane",
            "__meta__": {
                "__line__": 9,
                "__column__": 7,
                "__start_mark_index__": 165,
                "__end_mark_index__": 338
            }
        }
    }
]