[
    {
        "name": "Sample playbook",
        "hosts": "localhost",
        "collections": ["sensu.sensu_go", "ansible.builtin"],
        "tasks": [],
        "__meta__": {
            "__line__": 1,
            "__column__": 3,
            "__start_mark_index__": 2,
            "__end_mark_index__": 501
        }
    }
]