[
    {
        "name": "Create local user",
        "sensu.sensu_go.user": {
            "name": "johnmcclane",
            "__meta__": {
                "__line__": 9,
                "__column__": 7,
                "__start_mark_index__": 165,
                "__end_mark_index__": 338
            }
        },
        "__meta__": {
            "__line__": 7,
            "__column__": 5,
            "__start_mark_index__": 263,
            "__end_mark_index__": 338
        }
    },
    {
        "name": "OpenStack info gathering",
        "openstack.cloud.os_flavor_info": null,
        "__meta__": {
            "__line__": 16,
            "__column__": 5,
            "__start_mark_index__": 340,
            "__end_mark_index__": 414
        }
    }
]