[
  {
    "name": "Sample playbook",
    "hosts": "localhost",
    "collections": [
      "sensu.sensu_go",
      "ansible.builtin"
    ],
    "post_tasks": [
      {
        "name": "Post-Task",
        "ansible.builtin.command": "echo post_task",
        "__meta__": {
          "__line__": 7,
          "__column__": 5,
          "__start_mark_index__": 115,
          "__end_mark_index__": 177
        }
      }
    ],
    "pre_tasks": [
      {
        "name": "Pre-Task",
        "ansible.builtin.command": "echo pre_task",
        "__meta__": {
          "__line__": 10,
          "__column__": 5,
          "__start_mark_index__": 192,
          "__end_mark_index__": 252
        }
      }
    ],
    "tasks": [
      {
        "name": "Create local user",
        "sensu.sensu_go.user": {
          "name": "johnmcclane",
          "__meta__": {
            "__line__": 15,
            "__column__": 7,
            "__start_mark_index__": 318,
            "__end_mark_index__": 338
          }
        },
        "__meta__": {
          "__line__": 13,
          "__column__": 5,
          "__start_mark_index__": 263,
          "__end_mark_index__": 338
        }
      },
      {
        "name": "OpenStack info gathering",
        "openstack.cloud.os_flavor_info": null,
        "__meta__": {
          "__line__": 16,
          "__column__": 5,
          "__start_mark_index__": 340,
          "__end_mark_index__": 409
        }
      },
      {
        "name": "Read-only command",
        "ansible.builtin.command": "ls /tmp",
        "changed_when": false,
        "__meta__": {
          "__line__": 18,
          "__column__": 5,
          "__start_mark_index__": 411,
          "__end_mark_index__": 496
        }
      }
    ],
    "__meta__": {
      "__line__": 1,
      "__column__": 3,
      "__start_mark_index__": 2,
      "__end_mark_index__": 496
    }
  }
]