[
    {
        "task_id": NaN,
        "task_args": {
            "name": null,
            "ansible.builtin.lineinfile": {
                "path": null,
                "line": null
            }
        },
        "spotter_metadata": {
            "file": NaN,
            "line": 2,
            "column": 3,
            "start_mark_index": 6,
            "end_mark_index": 182
        },
        "spotter_obfuscated": [],
        "spotter_noqa": []
    },
    {
        "task_id": NaN,
        "task_args": {
            "name": null,
            "sensu.sensu_go.user": {
                "name": null,
                "password": null,
                "state": null
            }
        },
        "spotter_metadata": {
            "file": NaN,
            "line": 7,
            "column": 3,
            "start_mark_index": 184,
            "end_mark_index": 289
        },
        "spotter_obfuscated": [],
        "spotter_noqa": []
    }
]