[
  {
    "task_id": NaN,
    "task_args": {
      "name": null,
      "ansible.builtin.debug": {
        "msg": null
      }
    },
    "spotter_metadata": {
      "file": NaN,
      "line": 4,
      "column": 7,
      "start_mark_index": 83,
      "end_mark_index": 157
    },
    "spotter_obfuscated": [],
    "spotter_noqa": []
  },
  {
    "task_id": NaN,
    "task_args": {
      "name": null,
      "ansible.builtin.debug": {
        "msg": null
      }
    },
    "spotter_metadata": {
      "file": NaN,
      "line": 8,
      "column": 7,
      "start_mark_index": 171,
      "end_mark_index": 248
    },
    "spotter_obfuscated": [],
    "spotter_noqa": []
  },
  {
    "task_id": NaN,
    "task_args": {
      "name": null,
      "ansible.builtin.debug": {
        "msg": null
      }
    },
    "spotter_metadata": {
      "file": NaN,
      "line": 12,
      "column": 7,
      "start_mark_index": 262,
      "end_mark_index": 334
    },
    "spotter_obfuscated": [],
    "spotter_noqa": []
  }
]