[
    [
        {
            "task_id": NaN,
            "task_args": {
                "name": "Create a new ServiceNow incident",
                "servicenow.itsm.incident": {
                    "instance": {
                        "host": "https://instance_id.service-now.com",
                        "username": "user",
                        "password": null
                    }
                }
            },
            "spotter_metadata": {
                "file": NaN,
                "line": 8,
                "column": 7,
                "start_mark_index": 120,
                "end_mark_index": 314
            },
            "spotter_obfuscated": [
                {
                    "type": "str",
                    "path": [
                        "servicenow.itsm.incident",
                        "instance",
                        "password"
                    ]
                }
            ],
            "spotter_noqa": []
        }
    ],
    [
        {
            "playbook_id": NaN,
            "plays": [
                {
                    "play_id": NaN,
                    "play_args": {
                        "name": "Sample playbook",
                        "hosts": "localhost",
                        "collections": [
                            "sensu.sensu_go",
                            "ansible.builtin"
                        ]
                    },
                    "spotter_metadata": {
                        "file": NaN,
                        "line": 2,
                        "column": 3,
                        "start_mark_index": 6,
                        "end_mark_index": 314
                    },
                    "spotter_obfuscated": []
                }
            ]
        }
    ]
]