[
    [
        {
            "task_id": NaN,
            "task_args": {
                "ansible.builtin.debug": {
                    "msg": null
                },
                "check_mode": null,
                "name": null
            },
            "spotter_metadata": {
                "file": NaN,
                "line": 1,
                "column": 3,
                "start_mark_index": 2,
                "end_mark_index": 96
            },
            "spotter_obfuscated": [],
            "spotter_noqa": []
        },
        {
            "task_id": NaN,
            "task_args": {
                "ansible.builtin.include": null,
                "check_mode": null,
                "name": null
            },
            "spotter_metadata": {
                "file": NaN,
                "line": 5,
                "column": 3,
                "start_mark_index": 98,
                "end_mark_index": 183
            },
            "spotter_obfuscated": [],
            "spotter_noqa": []
        },
        {
            "task_id": NaN,
            "task_args": {
                "name": null,
                "register": null,
                "sensu.sensu_go.user_info": null
            },
            "spotter_metadata": {
                "file": NaN,
                "line": 8,
                "column": 3,
                "start_mark_index": 185,
                "end_mark_index": 260
            },
            "spotter_obfuscated": [],
            "spotter_noqa": []
        }
    ],
    []
]