[
    [
        {
            "task_id": NaN,
            "task_args": {
                "ansible.builtin.debug": {
                    "msg": null
                },
                "check_mode": null,
                "name": null
            },
            "spotter_metadata": {
                "file": NaN,
                "line": 1,
                "column": 3,
                "start_mark_index": 2,
                "end_mark_index": 96
            },
            "spotter_obfuscated": [],
            "spotter_noqa": []
        },
        {
            "task_id": NaN,
            "task_args": {
                "ansible.builtin.include": null,
                "check_mode": null,
                "name": null
            },
            "spotter_metadata": {
                "file": NaN,
                "line": 5,
                "column": 3,
                "start_mark_index": 98,
                "end_mark_index": 183
            },
            "spotter_obfuscated": [],
            "spotter_noqa": []
        },
        {
            "task_id": NaN,
            "task_args": {
                "name": null,
                "register": null,
                "sensu.sensu_go.user_info": null
            },
            "spotter_metadata": {
                "file": NaN,
                "line": 8,
                "column": 3,
                "start_mark_index": 185,
                "end_mark_index": 260
            },
            "spotter_obfuscated": [],
            "spotter_noqa": []
        },
        {
            "task_id": NaN,
            "task_args": {
                "name": null,
                "sensu.sensu_go.user": {
                    "name": null
                }
            },
            "spotter_metadata": {
                "file": NaN,
                "line": 13,
                "column": 5,
                "start_mark_index": 263,
                "end_mark_index": 338
            },
            "spotter_obfuscated": [],
            "spotter_noqa": []
        },
        {
            "task_id": NaN,
            "task_args": {
                "name": null,
                "openstack.cloud.os_flavor_info": null
            },
            "spotter_metadata": {
                "file": NaN,
                "line": 16,
                "column": 5,
                "start_mark_index": 340,
                "end_mark_index": 409
            },
            "spotter_obfuscated": [],
            "spotter_noqa": []
        },
        {
            "task_id": NaN,
            "task_args": {
                "ansible.builtin.command": null,
                "changed_when": null,
                "name": null
            },
            "spotter_metadata": {
                "file": NaN,
                "line": 18,
                "column": 5,
                "start_mark_index": 411,
                "end_mark_index": 496
            },
            "spotter_obfuscated": [],
            "spotter_noqa": []
        },
        {
            "task_id": NaN,
            "task_args": {
                "ansible.builtin.command": null,
                "name": null
            },
            "spotter_metadata": {
                "file": NaN,
                "line": 10,
                "column": 5,
                "start_mark_index": 192,
                "end_mark_index": 252
            },
            "spotter_obfuscated": [],
            "spotter_noqa": []
        },
        {
            "task_id": NaN,
            "task_args": {
                "ansible.builtin.command": null,
                "name": null
            },
            "spotter_metadata": {
                "file": NaN,
                "line": 7,
                "column": 5,
                "start_mark_index": 115,
                "end_mark_index": 177
            },
            "spotter_obfuscated": [],
            "spotter_noqa": []
        },
        {
            "task_id": NaN,
            "task_args": {
                "ansible.builtin.debug": {
                    "msg": null
                },
                "check_mode": null,
                "name": null
            },
            "spotter_metadata": {
                "file": NaN,
                "line": 1,
                "column": 3,
                "start_mark_index": 2,
                "end_mark_index": 96
            },
            "spotter_obfuscated": [],
            "spotter_noqa": []
        },
        {
            "task_id": NaN,
            "task_args": {
                "ansible.builtin.include": null,
                "check_mode": null,
                "name": null
            },
            "spotter_metadata": {
                "file": NaN,
                "line": 5,
                "column": 3,
                "start_mark_index": 98,
                "end_mark_index": 183
            },
            "spotter_obfuscated": [],
            "spotter_noqa": []
        },
        {
            "task_id": NaN,
            "task_args": {
                "name": null,
                "register": null,
                "sensu.sensu_go.user_info": null
            },
            "spotter_metadata": {
                "file": NaN,
                "line": 8,
                "column": 3,
                "start_mark_index": 185,
                "end_mark_index": 260
            },
            "spotter_obfuscated": [],
            "spotter_noqa": []
        },
        {
            "task_id": NaN,
            "task_args": {
                "name": null,
                "sensu.sensu_go.user": {
                    "name": null
                }
            },
            "spotter_metadata": {
                "file": NaN,
                "line": 13,
                "column": 5,
                "start_mark_index": 263,
                "end_mark_index": 338
            },
            "spotter_obfuscated": [],
            "spotter_noqa": []
        },
        {
            "task_id": NaN,
            "task_args": {
                "name": null,
                "openstack.cloud.os_flavor_info": null
            },
            "spotter_metadata": {
                "file": NaN,
                "line": 16,
                "column": 5,
                "start_mark_index": 340,
                "end_mark_index": 409
            },
            "spotter_obfuscated": [],
            "spotter_noqa": []
        },
        {
            "task_id": NaN,
            "task_args": {
                "ansible.builtin.command": null,
                "changed_when": null,
                "name": null
            },
            "spotter_metadata": {
                "file": NaN,
                "line": 18,
                "column": 5,
                "start_mark_index": 411,
                "end_mark_index": 496
            },
            "spotter_obfuscated": [],
            "spotter_noqa": []
        },
        {
            "task_id": NaN,
            "task_args": {
                "ansible.builtin.command": null,
                "name": null
            },
            "spotter_metadata": {
                "file": NaN,
                "line": 10,
                "column": 5,
                "start_mark_index": 192,
                "end_mark_index": 252
            },
            "spotter_obfuscated": [],
            "spotter_noqa": []
        },
        {
            "task_id": NaN,
            "task_args": {
                "ansible.builtin.command": null,
                "name": null
            },
            "spotter_metadata": {
                "file": NaN,
                "line": 7,
                "column": 5,
                "start_mark_index": 115,
                "end_mark_index": 177
            },
            "spotter_obfuscated": [],
            "spotter_noqa": []
        }
    ],
    [
        {
            "playbook_id": NaN,
            "plays": [
                {
                    "play_id": NaN,
                    "play_args": {
                        "collections": [
                            "sensu.sensu_go",
                            "ansible.builtin"
                        ],
                        "hosts": null,
                        "name": null
                    },
                    "spotter_metadata": {
                        "file": NaN,
                        "line": 1,
                        "column": 3,
                        "start_mark_index": 2,
                        "end_mark_index": 496
                    },
                    "spotter_obfuscated": []
                }
            ]
        },
        {
            "playbook_id": NaN,
            "plays": [
                {
                    "play_id": NaN,
                    "play_args": {
                        "collections": [
                            "sensu.sensu_go",
                            "ansible.builtin"
                        ],
                        "hosts": null,
                        "name": null
                    },
                    "spotter_metadata": {
                        "file": NaN,
                        "line": 1,
                        "column": 3,
                        "start_mark_index": 2,
                        "end_mark_index": 496
                    },
                    "spotter_obfuscated": []
                }
            ]
        }
    ]
]